Importance of Skepticism in Data Science
…
You can see many more absurd examples of this wesbsite completely dedicated to spurious correlations.

The cases presented in the spurious correlation site are all examples of what is generally called data dredging, data fishing, or data snooping. Its basically a form of what in the US they call cherry picking. An example of data dredging would be if you look through many results produced by a random process and pick the one that shows a relationship that supports a theory you want to defend.

A Monte Carlo simulation can be used to show how data dredging can result in finding high correlations among uncorrelated variables. We will save the results of our simulation into a tibble:

N <- 25
G <- 1000000
set.seed(1000)
sim_data <- tibble(group = rep(1:G, each = N),
                   X = rnorm(N*G), Y = rnorm(N*G))
sim_data

## # A tibble: 25,000,000 x 3
##    group       X       Y
##    <int>   <dbl>   <dbl>
##  1     1 -0.446  -0.481 
##  2     1 -1.21    1.47  
##  3     1  0.0411 -0.183 
##  4     1  0.639  -0.733 
##  5     1 -0.787   1.61  
##  6     1 -0.385   0.0306
##  7     1 -0.476  -0.0607
##  8     1  0.720  -1.32  
##  9     1 -0.0185 -2.38  
## 10     1 -1.37    1.03  
## #  with 24,999,990 more rows

The first columns denotes group and we simulated of groups each with 25 observations. For each group we generate 25 observations, which are stored in the second and third columns. These are just random independent normally distributed data. So we know, because we constructed the simulation, that \(X\) and \(Y\) are not correlated.

Next, we compute the correlation between X and Y for each group and look at the max:

res <- sim_data %>% 
  group_by(group) %>% 
  summarize(r = cor(X, Y)) %>% 
  arrange(desc(r))
res

## # A tibble: 1,000,000 x 2
##     group     r
##     <int> <dbl>
##  1 625883 0.857
##  2 892542 0.767
##  3 545703 0.766
##  4 908306 0.765
##  5 412189 0.762
##  6 114308 0.760
##  7  12623 0.760
##  8 273433 0.754
##  9 274449 0.753
## 10 625177 0.750
## #  with 999,990 more rows
…
