Parallel Programming with Futures
…
 Conflicts  tidyverse_conflicts() 
x dplyr::filter() masks stats::filter()
x dplyr::lag()    masks stats::lag()

dat <- read_csv("data/nmmaps/denv.csv", col_types = "Didd")

The first few rows of the data look as follows.

dat

# A tibble: 6,940 x 4
   date       death  tmpd pm10tmean
   <date>     <int> <dbl>     <dbl>
 1 1987-01-01    22  25.5     5.55 
 2 1987-01-02    22  32      29.3  
 3 1987-01-03    21  35.5     0.965
 4 1987-01-04    19  46.8   -10.8  
 5 1987-01-05    22  41.8     9.36 
 6 1987-01-06    19  30.8    -8.67 
 7 1987-01-07    19  29.8    -5.83 
 8 1987-01-08    23  23.5    -8.83 
 9 1987-01-09    21  29      60.3  
10 1987-01-10    15  32      19.6  
#  with 6,930 more rows
…
Parsed with column specification:
cols(
  date = col_date(format = ""),
  death = col_double(),
  tmpd = col_double(),
  pm10tmean = col_double()
)

Since the glm() function needs the dat object, the dat future will be evaluated and fed into the glm() function. Note that theres no need to use the value() function to get the value of the future.

results %<-% broom::tidy(fit)
print(results)

# A tibble: 157 x 5
   term              estimate std.error statistic   p.value
   <chr>                <dbl>     <dbl>     <dbl>     <dbl>
 1 (Intercept)         3.00      0.0778    38.6   0        
 2 ns(tmpd, 3)1        0.0416    0.0275     1.51  0.131    
 3 ns(tmpd, 3)2        0.131     0.0910     1.44  0.151    
 4 ns(tmpd, 3)3        0.120     0.0368     3.25  0.00114  
 5 ns(date, 8 * 19)1  -0.0432    0.0922    -0.469 0.639    
 6 ns(date, 8 * 19)2  -0.481     0.123     -3.90  0.0000970
 7 ns(date, 8 * 19)3  -0.250     0.112     -2.23  0.0258   
 8 ns(date, 8 * 19)4  -0.524     0.121     -4.33  0.0000150
 9 ns(date, 8 * 19)5  -0.139     0.114     -1.22  0.222    
10 ns(date, 8 * 19)6  -0.292     0.134     -2.17  0.0299   
#  with 147 more rows
…
