Resampling Techniques for Statistics and Data Science
…
Lets dig into the data to answer this question.

Data import

verizon <- read_csv("https://sites.google.com/site/chiharahesterberg/data2/Verizon.csv")

## Parsed with column specification:
## cols(
##   Time = col_double(),
##   Group = col_character()
## )

verizon

## # A tibble: 1,687 x 2
##     Time Group
##    <dbl> <chr>
##  1 17.5  ILEC 
##  2  2.4  ILEC 
##  3  0    ILEC 
##  4  0.65 ILEC 
##  5 22.2  ILEC 
##  6  1.2  ILEC 
##  7  2.08 ILEC 
##  8  4.97 ILEC 
##  9  0    ILEC 
## 10 27.6  ILEC 
## #  with 1,677 more rows

verizon <- verizon %>% 
  rename(time=Time, group=Group)

verizon

## # A tibble: 1,687 x 2
##     time group
##    <dbl> <chr>
##  1 17.5  ILEC 
##  2  2.4  ILEC 
##  3  0    ILEC 
##  4  0.65 ILEC 
##  5 22.2  ILEC 
##  6  1.2  ILEC 
##  7  2.08 ILEC 
##  8  4.97 ILEC 
##  9  0    ILEC 
## 10 27.6  ILEC 
## #  with 1,677 more rows
…
